<?xml version="1.0" encoding="utf-8" standalone="no"?>
<!DOCTYPE svg PUBLIC "-//W3C//DTD SVG 1.1//EN"
  "http://www.w3.org/Graphics/SVG/1.1/DTD/svg11.dtd">
<!-- Created with matplotlib (https://matplotlib.org/) -->
<svg height="288pt" version="1.1" viewBox="0 0 432 288" width="432pt" xmlns="http://www.w3.org/2000/svg" xmlns:xlink="http://www.w3.org/1999/xlink">
 <defs>
  <style type="text/css">
*{stroke-linecap:butt;stroke-linejoin:round;}
  </style>
 </defs>
 <g id="figure_1">
  <g id="patch_1">
   <path d="M 0 288 
L 432 288 
L 432 0 
L 0 0 
z
" style="fill:#ffffff;"/>
  </g>
  <g id="axes_1">
   <g id="patch_2">
    <path d="M 104.4 252 
L 321.84 252 
L 321.84 34.56 
L 104.4 34.56 
z
" style="fill:#ffffff;"/>
   </g>
   <g id="QuadMesh_1">
    <path clip-path="url(#pc666b0fc05)" d="M 104.4 34.56 
L 126.144 34.56 
L 126.144 56.304 
L 104.4 56.304 
L 104.4 34.56 
" style="fill:#67c4be;"/>
    <path clip-path="url(#pc666b0fc05)" d="M 126.144 34.56 
L 147.888 34.56 
L 147.888 56.304 
L 126.144 56.304 
L 126.144 34.56 
" style="fill:#f5fbc4;"/>
    <path clip-path="url(#pc666b0fc05)" d="M 147.888 34.56 
L 169.632 34.56 
L 169.632 56.304 
L 147.888 56.304 
L 147.888 34.56 
" style="fill:#fafdcf;"/>
    <path clip-path="url(#pc666b0fc05)" d="M 169.632 34.56 
L 191.376 34.56 
L 191.376 56.304 
L 169.632 56.304 
L 169.632 34.56 
" style="fill:#fcfed3;"/>
    <path clip-path="url(#pc666b0fc05)" d="M 191.376 34.56 
L 213.12 34.56 
L 213.12 56.304 
L 191.376 56.304 
L 191.376 34.56 
" style="fill:#fdfed5;"/>
    <path clip-path="url(#pc666b0fc05)" d="M 213.12 34.56 
L 234.864 34.56 
L 234.864 56.304 
L 213.12 56.304 
L 213.12 34.56 
" style="fill:#feffd6;"/>
    <path clip-path="url(#pc666b0fc05)" d="M 234.864 34.56 
L 256.608 34.56 
L 256.608 56.304 
L 234.864 56.304 
L 234.864 34.56 
" style="fill:#feffd6;"/>
    <path clip-path="url(#pc666b0fc05)" d="M 256.608 34.56 
L 278.352 34.56 
L 278.352 56.304 
L 256.608 56.304 
L 256.608 34.56 
" style="fill:#feffd6;"/>
    <path clip-path="url(#pc666b0fc05)" d="M 278.352 34.56 
L 300.096 34.56 
L 300.096 56.304 
L 278.352 56.304 
L 278.352 34.56 
" style="fill:#feffd6;"/>
    <path clip-path="url(#pc666b0fc05)" d="M 300.096 34.56 
L 321.84 34.56 
L 321.84 56.304 
L 300.096 56.304 
L 300.096 34.56 
" style="fill:#feffd6;"/>
    <path clip-path="url(#pc666b0fc05)" d="M 104.4 56.304 
L 126.144 56.304 
L 126.144 78.048 
L 104.4 78.048 
L 104.4 56.304 
" style="fill:#f5fbc4;"/>
    <path clip-path="url(#pc666b0fc05)" d="M 126.144 56.304 
L 147.888 56.304 
L 147.888 78.048 
L 126.144 78.048 
L 126.144 56.304 
" style="fill:#f5fbc4;"/>
    <path clip-path="url(#pc666b0fc05)" d="M 147.888 56.304 
L 169.632 56.304 
L 169.632 78.048 
L 147.888 78.048 
L 147.888 56.304 
" style="fill:#fdfed5;"/>
    <path clip-path="url(#pc666b0fc05)" d="M 169.632 56.304 
L 191.376 56.304 
L 191.376 78.048 
L 169.632 78.048 
L 169.632 56.304 
" style="fill:#fdfed5;"/>
    <path clip-path="url(#pc666b0fc05)" d="M 191.376 56.304 
L 213.12 56.304 
L 213.12 78.048 
L 191.376 78.048 
L 191.376 56.304 
" style="fill:#feffd8;"/>
    <path clip-path="url(#pc666b0fc05)" d="M 213.12 56.304 
L 234.864 56.304 
L 234.864 78.048 
L 213.12 78.048 
L 213.12 56.304 
" style="fill:#feffd6;"/>
    <path clip-path="url(#pc666b0fc05)" d="M 234.864 56.304 
L 256.608 56.304 
L 256.608 78.048 
L 234.864 78.048 
L 234.864 56.304 
" style="fill:#feffd8;"/>
    <path clip-path="url(#pc666b0fc05)" d="M 256.608 56.304 
L 278.352 56.304 
L 278.352 78.048 
L 256.608 78.048 
L 256.608 56.304 
" style="fill:#feffd8;"/>
    <path clip-path="url(#pc666b0fc05)" d="M 278.352 56.304 
L 300.096 56.304 
L 300.096 78.048 
L 278.352 78.048 
L 278.352 56.304 
" style="fill:#ffffd9;"/>
    <path clip-path="url(#pc666b0fc05)" d="M 300.096 56.304 
L 321.84 56.304 
L 321.84 78.048 
L 300.096 78.048 
L 300.096 56.304 
" style="fill:#ffffd9;"/>
    <path clip-path="url(#pc666b0fc05)" d="M 104.4 78.048 
L 126.144 78.048 
L 126.144 99.792 
L 104.4 99.792 
L 104.4 78.048 
" style="fill:#fcfed1;"/>
    <path clip-path="url(#pc666b0fc05)" d="M 126.144 78.048 
L 147.888 78.048 
L 147.888 99.792 
L 126.144 99.792 
L 126.144 78.048 
" style="fill:#fafdce;"/>
    <path clip-path="url(#pc666b0fc05)" d="M 147.888 78.048 
L 169.632 78.048 
L 169.632 99.792 
L 147.888 99.792 
L 147.888 78.048 
" style="fill:#f7fcc7;"/>
    <path clip-path="url(#pc666b0fc05)" d="M 169.632 78.048 
L 191.376 78.048 
L 191.376 99.792 
L 169.632 99.792 
L 169.632 78.048 
" style="fill:#fdfed4;"/>
    <path clip-path="url(#pc666b0fc05)" d="M 191.376 78.048 
L 213.12 78.048 
L 213.12 99.792 
L 191.376 99.792 
L 191.376 78.048 
" style="fill:#feffd6;"/>
    <path clip-path="url(#pc666b0fc05)" d="M 213.12 78.048 
L 234.864 78.048 
L 234.864 99.792 
L 213.12 99.792 
L 213.12 78.048 
" style="fill:#feffd8;"/>
    <path clip-path="url(#pc666b0fc05)" d="M 234.864 78.048 
L 256.608 78.048 
L 256.608 99.792 
L 234.864 99.792 
L 234.864 78.048 
" style="fill:#feffd8;"/>
    <path clip-path="url(#pc666b0fc05)" d="M 256.608 78.048 
L 278.352 78.048 
L 278.352 99.792 
L 256.608 99.792 
L 256.608 78.048 
" style="fill:#feffd8;"/>
    <path clip-path="url(#pc666b0fc05)" d="M 278.352 78.048 
L 300.096 78.048 
L 300.096 99.792 
L 278.352 99.792 
L 278.352 78.048 
" style="fill:#ffffd9;"/>
    <path clip-path="url(#pc666b0fc05)" d="M 300.096 78.048 
L 321.84 78.048 
L 321.84 99.792 
L 300.096 99.792 
L 300.096 78.048 
" style="fill:#ffffd9;"/>
    <path clip-path="url(#pc666b0fc05)" d="M 104.4 99.792 
L 126.144 99.792 
L 126.144 121.536 
L 104.4 121.536 
L 104.4 99.792 
" style="fill:#feffd6;"/>
    <path clip-path="url(#pc666b0fc05)" d="M 126.144 99.792 
L 147.888 99.792 
L 147.888 121.536 
L 126.144 121.536 
L 126.144 99.792 
" style="fill:#feffd6;"/>
    <path clip-path="url(#pc666b0fc05)" d="M 147.888 99.792 
L 169.632 99.792 
L 169.632 121.536 
L 147.888 121.536 
L 147.888 99.792 
" style="fill:#fdfed4;"/>
    <path clip-path="url(#pc666b0fc05)" d="M 169.632 99.792 
L 191.376 99.792 
L 191.376 121.536 
L 169.632 121.536 
L 169.632 99.792 
" style="fill:#f9fdcc;"/>
    <path clip-path="url(#pc666b0fc05)" d="M 191.376 99.792 
L 213.12 99.792 
L 213.12 121.536 
L 191.376 121.536 
L 191.376 99.792 
" style="fill:#feffd6;"/>
    <path clip-path="url(#pc666b0fc05)" d="M 213.12 99.792 
L 234.864 99.792 
L 234.864 121.536 
L 213.12 121.536 
L 213.12 99.792 
" style="fill:#feffd6;"/>
    <path clip-path="url(#pc666b0fc05)" d="M 234.864 99.792 
L 256.608 99.792 
L 256.608 121.536 
L 234.864 121.536 
L 234.864 99.792 
" style="fill:#feffd6;"/>
    <path clip-path="url(#pc666b0fc05)" d="M 256.608 99.792 
L 278.352 99.792 
L 278.352 121.536 
L 256.608 121.536 
L 256.608 99.792 
" style="fill:#feffd8;"/>
    <path clip-path="url(#pc666b0fc05)" d="M 278.352 99.792 
L 300.096 99.792 
L 300.096 121.536 
L 278.352 121.536 
L 278.352 99.792 
" style="fill:#ffffd9;"/>
    <path clip-path="url(#pc666b0fc05)" d="M 300.096 99.792 
L 321.84 99.792 
L 321.84 121.536 
L 300.096 121.536 
L 300.096 99.792 
" style="fill:#ffffd9;"/>
    <path clip-path="url(#pc666b0fc05)" d="M 104.4 121.536 
L 126.144 121.536 
L 126.144 143.28 
L 104.4 143.28 
L 104.4 121.536 
" style="fill:#feffd6;"/>
    <path clip-path="url(#pc666b0fc05)" d="M 126.144 121.536 
L 147.888 121.536 
L 147.888 143.28 
L 126.144 143.28 
L 126.144 121.536 
" style="fill:#fdfed5;"/>
    <path clip-path="url(#pc666b0fc05)" d="M 147.888 121.536 
L 169.632 121.536 
L 169.632 143.28 
L 147.888 143.28 
L 147.888 121.536 
" style="fill:#feffd6;"/>
    <path clip-path="url(#pc666b0fc05)" d="M 169.632 121.536 
L 191.376 121.536 
L 191.376 143.28 
L 169.632 143.28 
L 169.632 121.536 
" style="fill:#fbfdd0;"/>
    <path clip-path="url(#pc666b0fc05)" d="M 191.376 121.536 
L 213.12 121.536 
L 213.12 143.28 
L 191.376 143.28 
L 191.376 121.536 
" style="fill:#f5fbc2;"/>
    <path clip-path="url(#pc666b0fc05)" d="M 213.12 121.536 
L 234.864 121.536 
L 234.864 143.28 
L 213.12 143.28 
L 213.12 121.536 
" style="fill:#fcfed3;"/>
    <path clip-path="url(#pc666b0fc05)" d="M 234.864 121.536 
L 256.608 121.536 
L 256.608 143.28 
L 234.864 143.28 
L 234.864 121.536 
" style="fill:#fcfed3;"/>
    <path clip-path="url(#pc666b0fc05)" d="M 256.608 121.536 
L 278.352 121.536 
L 278.352 143.28 
L 256.608 143.28 
L 256.608 121.536 
" style="fill:#fdfed5;"/>
    <path clip-path="url(#pc666b0fc05)" d="M 278.352 121.536 
L 300.096 121.536 
L 300.096 143.28 
L 278.352 143.28 
L 278.352 121.536 
" style="fill:#fdfed5;"/>
    <path clip-path="url(#pc666b0fc05)" d="M 300.096 121.536 
L 321.84 121.536 
L 321.84 143.28 
L 300.096 143.28 
L 300.096 121.536 
" style="fill:#ffffd9;"/>
    <path clip-path="url(#pc666b0fc05)" d="M 104.4 143.28 
L 126.144 143.28 
L 126.144 165.024 
L 104.4 165.024 
L 104.4 143.28 
" style="fill:#feffd8;"/>
    <path clip-path="url(#pc666b0fc05)" d="M 126.144 143.28 
L 147.888 143.28 
L 147.888 165.024 
L 126.144 165.024 
L 126.144 143.28 
" style="fill:#ffffd9;"/>
    <path clip-path="url(#pc666b0fc05)" d="M 147.888 143.28 
L 169.632 143.28 
L 169.632 165.024 
L 147.888 165.024 
L 147.888 143.28 
" style="fill:#feffd8;"/>
    <path clip-path="url(#pc666b0fc05)" d="M 169.632 143.28 
L 191.376 143.28 
L 191.376 165.024 
L 169.632 165.024 
L 169.632 143.28 
" style="fill:#feffd6;"/>
    <path clip-path="url(#pc666b0fc05)" d="M 191.376 143.28 
L 213.12 143.28 
L 213.12 165.024 
L 191.376 165.024 
L 191.376 143.28 
" style="fill:#fdfed4;"/>
    <path clip-path="url(#pc666b0fc05)" d="M 213.12 143.28 
L 234.864 143.28 
L 234.864 165.024 
L 213.12 165.024 
L 213.12 143.28 
" style="fill:#f6fbc5;"/>
    <path clip-path="url(#pc666b0fc05)" d="M 234.864 143.28 
L 256.608 143.28 
L 256.608 165.024 
L 234.864 165.024 
L 234.864 143.28 
" style="fill:#fdfed4;"/>
    <path clip-path="url(#pc666b0fc05)" d="M 256.608 143.28 
L 278.352 143.28 
L 278.352 165.024 
L 256.608 165.024 
L 256.608 143.28 
" style="fill:#fdfed4;"/>
    <path clip-path="url(#pc666b0fc05)" d="M 278.352 143.28 
L 300.096 143.28 
L 300.096 165.024 
L 278.352 165.024 
L 278.352 143.28 
" style="fill:#fdfed5;"/>
    <path clip-path="url(#pc666b0fc05)" d="M 300.096 143.28 
L 321.84 143.28 
L 321.84 165.024 
L 300.096 165.024 
L 300.096 143.28 
" style="fill:#ffffd9;"/>
    <path clip-path="url(#pc666b0fc05)" d="M 104.4 165.024 
L 126.144 165.024 
L 126.144 186.768 
L 104.4 186.768 
L 104.4 165.024 
" style="fill:#ffffd9;"/>
    <path clip-path="url(#pc666b0fc05)" d="M 126.144 165.024 
L 147.888 165.024 
L 147.888 186.768 
L 126.144 186.768 
L 126.144 165.024 
" style="fill:#ffffd9;"/>
    <path clip-path="url(#pc666b0fc05)" d="M 147.888 165.024 
L 169.632 165.024 
L 169.632 186.768 
L 147.888 186.768 
L 147.888 165.024 
" style="fill:#feffd8;"/>
    <path clip-path="url(#pc666b0fc05)" d="M 169.632 165.024 
L 191.376 165.024 
L 191.376 186.768 
L 169.632 186.768 
L 169.632 165.024 
" style="fill:#feffd6;"/>
    <path clip-path="url(#pc666b0fc05)" d="M 191.376 165.024 
L 213.12 165.024 
L 213.12 186.768 
L 191.376 186.768 
L 191.376 165.024 
" style="fill:#feffd6;"/>
    <path clip-path="url(#pc666b0fc05)" d="M 213.12 165.024 
L 234.864 165.024 
L 234.864 186.768 
L 213.12 186.768 
L 213.12 165.024 
" style="fill:#fcfed1;"/>
    <path clip-path="url(#pc666b0fc05)" d="M 234.864 165.024 
L 256.608 165.024 
L 256.608 186.768 
L 234.864 186.768 
L 234.864 165.024 
" style="fill:#f0f9b8;"/>
    <path clip-path="url(#pc666b0fc05)" d="M 256.608 165.024 
L 278.352 165.024 
L 278.352 186.768 
L 256.608 186.768 
L 256.608 165.024 
" style="fill:#f9fdcc;"/>
    <path clip-path="url(#pc666b0fc05)" d="M 278.352 165.024 
L 300.096 165.024 
L 300.096 186.768 
L 278.352 186.768 
L 278.352 165.024 
" style="fill:#f9fdcc;"/>
    <path clip-path="url(#pc666b0fc05)" d="M 300.096 165.024 
L 321.84 165.024 
L 321.84 186.768 
L 300.096 186.768 
L 300.096 165.024 
" style="fill:#fdfed4;"/>
    <path clip-path="url(#pc666b0fc05)" d="M 104.4 186.768 
L 126.144 186.768 
L 126.144 208.512 
L 104.4 208.512 
L 104.4 186.768 
" style="fill:#ffffd9;"/>
    <path clip-path="url(#pc666b0fc05)" d="M 126.144 186.768 
L 147.888 186.768 
L 147.888 208.512 
L 126.144 208.512 
L 126.144 186.768 
" style="fill:#feffd8;"/>
    <path clip-path="url(#pc666b0fc05)" d="M 147.888 186.768 
L 169.632 186.768 
L 169.632 208.512 
L 147.888 208.512 
L 147.888 186.768 
" style="fill:#feffd8;"/>
    <path clip-path="url(#pc666b0fc05)" d="M 169.632 186.768 
L 191.376 186.768 
L 191.376 208.512 
L 169.632 208.512 
L 169.632 186.768 
" style="fill:#feffd6;"/>
    <path clip-path="url(#pc666b0fc05)" d="M 191.376 186.768 
L 213.12 186.768 
L 213.12 208.512 
L 191.376 208.512 
L 191.376 186.768 
" style="fill:#feffd6;"/>
    <path clip-path="url(#pc666b0fc05)" d="M 213.12 186.768 
L 234.864 186.768 
L 234.864 208.512 
L 213.12 208.512 
L 213.12 186.768 
" style="fill:#fcfed3;"/>
    <path clip-path="url(#pc666b0fc05)" d="M 234.864 186.768 
L 256.608 186.768 
L 256.608 208.512 
L 234.864 208.512 
L 234.864 186.768 
" style="fill:#f9fdcb;"/>
    <path clip-path="url(#pc666b0fc05)" d="M 256.608 186.768 
L 278.352 186.768 
L 278.352 208.512 
L 256.608 208.512 
L 256.608 186.768 
" style="fill:#cdebb4;"/>
    <path clip-path="url(#pc666b0fc05)" d="M 278.352 186.768 
L 300.096 186.768 
L 300.096 208.512 
L 278.352 208.512 
L 278.352 186.768 
" style="fill:#e8f6b1;"/>
    <path clip-path="url(#pc666b0fc05)" d="M 300.096 186.768 
L 321.84 186.768 
L 321.84 208.512 
L 300.096 208.512 
L 300.096 186.768 
" style="fill:#f4fbc0;"/>
    <path clip-path="url(#pc666b0fc05)" d="M 104.4 208.512 
L 126.144 208.512 
L 126.144 230.256 
L 104.4 230.256 
L 104.4 208.512 
" style="fill:#feffd8;"/>
    <path clip-path="url(#pc666b0fc05)" d="M 126.144 208.512 
L 147.888 208.512 
L 147.888 230.256 
L 126.144 230.256 
L 126.144 208.512 
" style="fill:#ffffd9;"/>
    <path clip-path="url(#pc666b0fc05)" d="M 147.888 208.512 
L 169.632 208.512 
L 169.632 230.256 
L 147.888 230.256 
L 147.888 208.512 
" style="fill:#ffffd9;"/>
    <path clip-path="url(#pc666b0fc05)" d="M 169.632 208.512 
L 191.376 208.512 
L 191.376 230.256 
L 169.632 230.256 
L 169.632 208.512 
" style="fill:#ffffd9;"/>
    <path clip-path="url(#pc666b0fc05)" d="M 191.376 208.512 
L 213.12 208.512 
L 213.12 230.256 
L 191.376 230.256 
L 191.376 208.512 
" style="fill:#feffd6;"/>
    <path clip-path="url(#pc666b0fc05)" d="M 213.12 208.512 
L 234.864 208.512 
L 234.864 230.256 
L 213.12 230.256 
L 213.12 208.512 
" style="fill:#fdfed4;"/>
    <path clip-path="url(#pc666b0fc05)" d="M 234.864 208.512 
L 256.608 208.512 
L 256.608 230.256 
L 234.864 230.256 
L 234.864 208.512 
" style="fill:#f9fdcc;"/>
    <path clip-path="url(#pc666b0fc05)" d="M 256.608 208.512 
L 278.352 208.512 
L 278.352 230.256 
L 256.608 230.256 
L 256.608 208.512 
" style="fill:#f1faba;"/>
    <path clip-path="url(#pc666b0fc05)" d="M 278.352 208.512 
L 300.096 208.512 
L 300.096 230.256 
L 278.352 230.256 
L 278.352 208.512 
" style="fill:#71c8bd;"/>
    <path clip-path="url(#pc666b0fc05)" d="M 300.096 208.512 
L 321.84 208.512 
L 321.84 230.256 
L 300.096 230.256 
L 300.096 208.512 
" style="fill:#c9eab4;"/>
    <path clip-path="url(#pc666b0fc05)" d="M 104.4 230.256 
L 126.144 230.256 
L 126.144 252 
L 104.4 252 
L 104.4 230.256 
" style="fill:#feffd8;"/>
    <path clip-path="url(#pc666b0fc05)" d="M 126.144 230.256 
L 147.888 230.256 
L 147.888 252 
L 126.144 252 
L 126.144 230.256 
" style="fill:#feffd8;"/>
    <path clip-path="url(#pc666b0fc05)" d="M 147.888 230.256 
L 169.632 230.256 
L 169.632 252 
L 147.888 252 
L 147.888 230.256 
" style="fill:#feffd8;"/>
    <path clip-path="url(#pc666b0fc05)" d="M 169.632 230.256 
L 191.376 230.256 
L 191.376 252 
L 169.632 252 
L 169.632 230.256 
" style="fill:#feffd6;"/>
    <path clip-path="url(#pc666b0fc05)" d="M 191.376 230.256 
L 213.12 230.256 
L 213.12 252 
L 191.376 252 
L 191.376 230.256 
" style="fill:#feffd6;"/>
    <path clip-path="url(#pc666b0fc05)" d="M 213.12 230.256 
L 234.864 230.256 
L 234.864 252 
L 213.12 252 
L 213.12 230.256 
" style="fill:#fdfed5;"/>
    <path clip-path="url(#pc666b0fc05)" d="M 234.864 230.256 
L 256.608 230.256 
L 256.608 252 
L 234.864 252 
L 234.864 230.256 
" style="fill:#f9fdcc;"/>
    <path clip-path="url(#pc666b0fc05)" d="M 256.608 230.256 
L 278.352 230.256 
L 278.352 252 
L 256.608 252 
L 256.608 230.256 
" style="fill:#f2fabc;"/>
    <path clip-path="url(#pc666b0fc05)" d="M 278.352 230.256 
L 300.096 230.256 
L 300.096 252 
L 278.352 252 
L 278.352 230.256 
" style="fill:#9cd8b8;"/>
    <path clip-path="url(#pc666b0fc05)" d="M 300.096 230.256 
L 321.84 230.256 
L 321.84 252 
L 300.096 252 
L 300.096 230.256 
" style="fill:#081d58;"/>
   </g>
   <g id="matplotlib.axis_1">
    <g id="xtick_1">
     <g id="line2d_1">
      <defs>
       <path d="M 0 0 
L 0 3.5 
" id="m7081e9adef" style="stroke:#000000;stroke-width:0.8;"/>
      </defs>
      <g>
       <use style="stroke:#000000;stroke-width:0.8;" x="115.272" xlink:href="#m7081e9adef" y="252"/>
      </g>
     </g>
     <g id="text_1">
      <!-- 1 -->
      <defs>
       <path d="M 12.40625 8.296875 
L 28.515625 8.296875 
L 28.515625 63.921875 
L 10.984375 60.40625 
L 10.984375 69.390625 
L 28.421875 72.90625 
L 38.28125 72.90625 
L 38.28125 8.296875 
L 54.390625 8.296875 
L 54.390625 0 
L 12.40625 0 
z
" id="DejaVuSans-49"/>
      </defs>
      <g transform="translate(112.09075 266.598437)scale(0.1 -0.1)">
       <use xlink:href="#DejaVuSans-49"/>
      </g>
     </g>
    </g>
    <g id="xtick_2">
     <g id="line2d_2">
      <g>
       <use style="stroke:#000000;stroke-width:0.8;" x="137.016" xlink:href="#m7081e9adef" y="252"/>
      </g>
     </g>
     <g id="text_2">
      <!-- 2 -->
      <defs>
       <path d="M 19.1875 8.296875 
L 53.609375 8.296875 
L 53.609375 0 
L 7.328125 0 
L 7.328125 8.296875 
Q 12.9375 14.109375 22.625 23.890625 
Q 32.328125 33.6875 34.8125 36.53125 
Q 39.546875 41.84375 41.421875 45.53125 
Q 43.3125 49.21875 43.3125 52.78125 
Q 43.3125 58.59375 39.234375 62.25 
Q 35.15625 65.921875 28.609375 65.921875 
Q 23.96875 65.921875 18.8125 64.3125 
Q 13.671875 62.703125 7.8125 59.421875 
L 7.8125 69.390625 
Q 13.765625 71.78125 18.9375 73 
Q 24.125 74.21875 28.421875 74.21875 
Q 39.75 74.21875 46.484375 68.546875 
Q 53.21875 62.890625 53.21875 53.421875 
Q 53.21875 48.921875 51.53125 44.890625 
Q 49.859375 40.875 45.40625 35.40625 
Q 44.1875 33.984375 37.640625 27.21875 
Q 31.109375 20.453125 19.1875 8.296875 
z
" id="DejaVuSans-50"/>
      </defs>
      <g transform="translate(133.83475 266.598437)scale(0.1 -0.1)">
       <use xlink:href="#DejaVuSans-50"/>
      </g>
     </g>
    </g>
    <g id="xtick_3">
     <g id="line2d_3">
      <g>
       <use style="stroke:#000000;stroke-width:0.8;" x="158.76" xlink:href="#m7081e9adef" y="252"/>
      </g>
     </g>
     <g id="text_3">
      <!-- 3 -->
      <defs>
       <path d="M 40.578125 39.3125 
Q 47.65625 37.796875 51.625 33 
Q 55.609375 28.21875 55.609375 21.1875 
Q 55.609375 10.40625 48.1875 4.484375 
Q 40.765625 -1.421875 27.09375 -1.421875 
Q 22.515625 -1.421875 17.65625 -0.515625 
Q 12.796875 0.390625 7.625 2.203125 
L 7.625 11.71875 
Q 11.71875 9.328125 16.59375 8.109375 
Q 21.484375 6.890625 26.8125 6.890625 
Q 36.078125 6.890625 40.9375 10.546875 
Q 45.796875 14.203125 45.796875 21.1875 
Q 45.796875 27.640625 41.28125 31.265625 
Q 36.765625 34.90625 28.71875 34.90625 
L 20.21875 34.90625 
L 20.21875 43.015625 
L 29.109375 43.015625 
Q 36.375 43.015625 40.234375 45.921875 
Q 44.09375 48.828125 44.09375 54.296875 
Q 44.09375 59.90625 40.109375 62.90625 
Q 36.140625 65.921875 28.71875 65.921875 
Q 24.65625 65.921875 20.015625 65.03125 
Q 15.375 64.15625 9.8125 62.3125 
L 9.8125 71.09375 
Q 15.4375 72.65625 20.34375 73.4375 
Q 25.25 74.21875 29.59375 74.21875 
Q 40.828125 74.21875 47.359375 69.109375 
Q 53.90625 64.015625 53.90625 55.328125 
Q 53.90625 49.265625 50.4375 45.09375 
Q 46.96875 40.921875 40.578125 39.3125 
z
" id="DejaVuSans-51"/>
      </defs>
      <g transform="translate(155.57875 266.598437)scale(0.1 -0.1)">
       <use xlink:href="#DejaVuSans-51"/>
      </g>
     </g>
    </g>
    <g id="xtick_4">
     <g id="line2d_4">
      <g>
       <use style="stroke:#000000;stroke-width:0.8;" x="180.504" xlink:href="#m7081e9adef" y="252"/>
      </g>
     </g>
     <g id="text_4">
      <!-- 4 -->
      <defs>
       <path d="M 37.796875 64.3125 
L 12.890625 25.390625 
L 37.796875 25.390625 
z
M 35.203125 72.90625 
L 47.609375 72.90625 
L 47.609375 25.390625 
L 58.015625 25.390625 
L 58.015625 17.1875 
L 47.609375 17.1875 
L 47.609375 0 
L 37.796875 0 
L 37.796875 17.1875 
L 4.890625 17.1875 
L 4.890625 26.703125 
z
" id="DejaVuSans-52"/>
      </defs>
      <g transform="translate(177.32275 266.598437)scale(0.1 -0.1)">
       <use xlink:href="#DejaVuSans-52"/>
      </g>
     </g>
    </g>
    <g id="xtick_5">
     <g id="line2d_5">
      <g>
       <use style="stroke:#000000;stroke-width:0.8;" x="202.248" xlink:href="#m7081e9adef" y="252"/>
      </g>
     </g>
     <g id="text_5">
      <!-- 5 -->
      <defs>
       <path d="M 10.796875 72.90625 
L 49.515625 72.90625 
L 49.515625 64.59375 
L 19.828125 64.59375 
L 19.828125 46.734375 
Q 21.96875 47.46875 24.109375 47.828125 
Q 26.265625 48.1875 28.421875 48.1875 
Q 40.625 48.1875 47.75 41.5 
Q 54.890625 34.8125 54.890625 23.390625 
Q 54.890625 11.625 47.5625 5.09375 
Q 40.234375 -1.421875 26.90625 -1.421875 
Q 22.3125 -1.421875 17.546875 -0.640625 
Q 12.796875 0.140625 7.71875 1.703125 
L 7.71875 11.625 
Q 12.109375 9.234375 16.796875 8.0625 
Q 21.484375 6.890625 26.703125 6.890625 
Q 35.15625 6.890625 40.078125 11.328125 
Q 45.015625 15.765625 45.015625 23.390625 
Q 45.015625 31 40.078125 35.4375 
Q 35.15625 39.890625 26.703125 39.890625 
Q 22.75 39.890625 18.8125 39.015625 
Q 14.890625 38.140625 10.796875 36.28125 
z
" id="DejaVuSans-53"/>
      </defs>
      <g transform="translate(199.06675 266.598437)scale(0.1 -0.1)">
       <use xlink:href="#DejaVuSans-53"/>
      </g>
     </g>
    </g>
    <g id="xtick_6">
     <g id="line2d_6">
      <g>
       <use style="stroke:#000000;stroke-width:0.8;" x="223.992" xlink:href="#m7081e9adef" y="252"/>
      </g>
     </g>
     <g id="text_6">
      <!-- 6 -->
      <defs>
       <path d="M 33.015625 40.375 
Q 26.375 40.375 22.484375 35.828125 
Q 18.609375 31.296875 18.609375 23.390625 
Q 18.609375 15.53125 22.484375 10.953125 
Q 26.375 6.390625 33.015625 6.390625 
Q 39.65625 6.390625 43.53125 10.953125 
Q 47.40625 15.53125 47.40625 23.390625 
Q 47.40625 31.296875 43.53125 35.828125 
Q 39.65625 40.375 33.015625 40.375 
z
M 52.59375 71.296875 
L 52.59375 62.3125 
Q 48.875 64.0625 45.09375 64.984375 
Q 41.3125 65.921875 37.59375 65.921875 
Q 27.828125 65.921875 22.671875 59.328125 
Q 17.53125 52.734375 16.796875 39.40625 
Q 19.671875 43.65625 24.015625 45.921875 
Q 28.375 48.1875 33.59375 48.1875 
Q 44.578125 48.1875 50.953125 41.515625 
Q 57.328125 34.859375 57.328125 23.390625 
Q 57.328125 12.15625 50.6875 5.359375 
Q 44.046875 -1.421875 33.015625 -1.421875 
Q 20.359375 -1.421875 13.671875 8.265625 
Q 6.984375 17.96875 6.984375 36.375 
Q 6.984375 53.65625 15.1875 63.9375 
Q 23.390625 74.21875 37.203125 74.21875 
Q 40.921875 74.21875 44.703125 73.484375 
Q 48.484375 72.75 52.59375 71.296875 
z
" id="DejaVuSans-54"/>
      </defs>
      <g transform="translate(220.81075 266.598437)scale(0.1 -0.1)">
       <use xlink:href="#DejaVuSans-54"/>
      </g>
     </g>
    </g>
    <g id="xtick_7">
     <g id="line2d_7">
      <g>
       <use style="stroke:#000000;stroke-width:0.8;" x="245.736" xlink:href="#m7081e9adef" y="252"/>
      </g>
     </g>
     <g id="text_7">
      <!-- 7 -->
      <defs>
       <path d="M 8.203125 72.90625 
L 55.078125 72.90625 
L 55.078125 68.703125 
L 28.609375 0 
L 18.3125 0 
L 43.21875 64.59375 
L 8.203125 64.59375 
z
" id="DejaVuSans-55"/>
      </defs>
      <g transform="translate(242.55475 266.598437)scale(0.1 -0.1)">
       <use xlink:href="#DejaVuSans-55"/>
      </g>
     </g>
    </g>
    <g id="xtick_8">
     <g id="line2d_8">
      <g>
       <use style="stroke:#000000;stroke-width:0.8;" x="267.48" xlink:href="#m7081e9adef" y="252"/>
      </g>
     </g>
     <g id="text_8">
      <!-- 8 -->
      <defs>
       <path d="M 31.78125 34.625 
Q 24.75 34.625 20.71875 30.859375 
Q 16.703125 27.09375 16.703125 20.515625 
Q 16.703125 13.921875 20.71875 10.15625 
Q 24.75 6.390625 31.78125 6.390625 
Q 38.8125 6.390625 42.859375 10.171875 
Q 46.921875 13.96875 46.921875 20.515625 
Q 46.921875 27.09375 42.890625 30.859375 
Q 38.875 34.625 31.78125 34.625 
z
M 21.921875 38.8125 
Q 15.578125 40.375 12.03125 44.71875 
Q 8.5 49.078125 8.5 55.328125 
Q 8.5 64.0625 14.71875 69.140625 
Q 20.953125 74.21875 31.78125 74.21875 
Q 42.671875 74.21875 48.875 69.140625 
Q 55.078125 64.0625 55.078125 55.328125 
Q 55.078125 49.078125 51.53125 44.71875 
Q 48 40.375 41.703125 38.8125 
Q 48.828125 37.15625 52.796875 32.3125 
Q 56.78125 27.484375 56.78125 20.515625 
Q 56.78125 9.90625 50.3125 4.234375 
Q 43.84375 -1.421875 31.78125 -1.421875 
Q 19.734375 -1.421875 13.25 4.234375 
Q 6.78125 9.90625 6.78125 20.515625 
Q 6.78125 27.484375 10.78125 32.3125 
Q 14.796875 37.15625 21.921875 38.8125 
z
M 18.3125 54.390625 
Q 18.3125 48.734375 21.84375 45.5625 
Q 25.390625 42.390625 31.78125 42.390625 
Q 38.140625 42.390625 41.71875 45.5625 
Q 45.3125 48.734375 45.3125 54.390625 
Q 45.3125 60.0625 41.71875 63.234375 
Q 38.140625 66.40625 31.78125 66.40625 
Q 25.390625 66.40625 21.84375 63.234375 
Q 18.3125 60.0625 18.3125 54.390625 
z
" id="DejaVuSans-56"/>
      </defs>
      <g transform="translate(264.29875 266.598437)scale(0.1 -0.1)">
       <use xlink:href="#DejaVuSans-56"/>
      </g>
     </g>
    </g>
    <g id="xtick_9">
     <g id="line2d_9">
      <g>
       <use style="stroke:#000000;stroke-width:0.8;" x="289.224" xlink:href="#m7081e9adef" y="252"/>
      </g>
     </g>
     <g id="text_9">
      <!-- 9 -->
      <defs>
       <path d="M 10.984375 1.515625 
L 10.984375 10.5 
Q 14.703125 8.734375 18.5 7.8125 
Q 22.3125 6.890625 25.984375 6.890625 
Q 35.75 6.890625 40.890625 13.453125 
Q 46.046875 20.015625 46.78125 33.40625 
Q 43.953125 29.203125 39.59375 26.953125 
Q 35.25 24.703125 29.984375 24.703125 
Q 19.046875 24.703125 12.671875 31.3125 
Q 6.296875 37.9375 6.296875 49.421875 
Q 6.296875 60.640625 12.9375 67.421875 
Q 19.578125 74.21875 30.609375 74.21875 
Q 43.265625 74.21875 49.921875 64.515625 
Q 56.59375 54.828125 56.59375 36.375 
Q 56.59375 19.140625 48.40625 8.859375 
Q 40.234375 -1.421875 26.421875 -1.421875 
Q 22.703125 -1.421875 18.890625 -0.6875 
Q 15.09375 0.046875 10.984375 1.515625 
z
M 30.609375 32.421875 
Q 37.25 32.421875 41.125 36.953125 
Q 45.015625 41.5 45.015625 49.421875 
Q 45.015625 57.28125 41.125 61.84375 
Q 37.25 66.40625 30.609375 66.40625 
Q 23.96875 66.40625 20.09375 61.84375 
Q 16.21875 57.28125 16.21875 49.421875 
Q 16.21875 41.5 20.09375 36.953125 
Q 23.96875 32.421875 30.609375 32.421875 
z
" id="DejaVuSans-57"/>
      </defs>
      <g transform="translate(286.04275 266.598437)scale(0.1 -0.1)">
       <use xlink:href="#DejaVuSans-57"/>
      </g>
     </g>
    </g>
    <g id="xtick_10">
     <g id="line2d_10">
      <g>
       <use style="stroke:#000000;stroke-width:0.8;" x="310.968" xlink:href="#m7081e9adef" y="252"/>
      </g>
     </g>
     <g id="text_10">
      <!-- 10 -->
      <defs>
       <path d="M 31.78125 66.40625 
Q 24.171875 66.40625 20.328125 58.90625 
Q 16.5 51.421875 16.5 36.375 
Q 16.5 21.390625 20.328125 13.890625 
Q 24.171875 6.390625 31.78125 6.390625 
Q 39.453125 6.390625 43.28125 13.890625 
Q 47.125 21.390625 47.125 36.375 
Q 47.125 51.421875 43.28125 58.90625 
Q 39.453125 66.40625 31.78125 66.40625 
z
M 31.78125 74.21875 
Q 44.046875 74.21875 50.515625 64.515625 
Q 56.984375 54.828125 56.984375 36.375 
Q 56.984375 17.96875 50.515625 8.265625 
Q 44.046875 -1.421875 31.78125 -1.421875 
Q 19.53125 -1.421875 13.0625 8.265625 
Q 6.59375 17.96875 6.59375 36.375 
Q 6.59375 54.828125 13.0625 64.515625 
Q 19.53125 74.21875 31.78125 74.21875 
z
" id="DejaVuSans-48"/>
      </defs>
      <g transform="translate(304.6055 266.598437)scale(0.1 -0.1)">
       <use xlink:href="#DejaVuSans-49"/>
       <use x="63.623047" xlink:href="#DejaVuSans-48"/>
      </g>
     </g>
    </g>
    <g id="text_11">
     <!-- pred_round -->
     <defs>
      <path d="M 18.109375 8.203125 
L 18.109375 -20.796875 
L 9.078125 -20.796875 
L 9.078125 54.6875 
L 18.109375 54.6875 
L 18.109375 46.390625 
Q 20.953125 51.265625 25.265625 53.625 
Q 29.59375 56 35.59375 56 
Q 45.5625 56 51.78125 48.09375 
Q 58.015625 40.1875 58.015625 27.296875 
Q 58.015625 14.40625 51.78125 6.484375 
Q 45.5625 -1.421875 35.59375 -1.421875 
Q 29.59375 -1.421875 25.265625 0.953125 
Q 20.953125 3.328125 18.109375 8.203125 
z
M 48.6875 27.296875 
Q 48.6875 37.203125 44.609375 42.84375 
Q 40.53125 48.484375 33.40625 48.484375 
Q 26.265625 48.484375 22.1875 42.84375 
Q 18.109375 37.203125 18.109375 27.296875 
Q 18.109375 17.390625 22.1875 11.75 
Q 26.265625 6.109375 33.40625 6.109375 
Q 40.53125 6.109375 44.609375 11.75 
Q 48.6875 17.390625 48.6875 27.296875 
z
" id="DejaVuSans-112"/>
      <path d="M 41.109375 46.296875 
Q 39.59375 47.171875 37.8125 47.578125 
Q 36.03125 48 33.890625 48 
Q 26.265625 48 22.1875 43.046875 
Q 18.109375 38.09375 18.109375 28.8125 
L 18.109375 0 
L 9.078125 0 
L 9.078125 54.6875 
L 18.109375 54.6875 
L 18.109375 46.1875 
Q 20.953125 51.171875 25.484375 53.578125 
Q 30.03125 56 36.53125 56 
Q 37.453125 56 38.578125 55.875 
Q 39.703125 55.765625 41.0625 55.515625 
z
" id="DejaVuSans-114"/>
      <path d="M 56.203125 29.59375 
L 56.203125 25.203125 
L 14.890625 25.203125 
Q 15.484375 15.921875 20.484375 11.0625 
Q 25.484375 6.203125 34.421875 6.203125 
Q 39.59375 6.203125 44.453125 7.46875 
Q 49.3125 8.734375 54.109375 11.28125 
L 54.109375 2.78125 
Q 49.265625 0.734375 44.1875 -0.34375 
Q 39.109375 -1.421875 33.890625 -1.421875 
Q 20.796875 -1.421875 13.15625 6.1875 
Q 5.515625 13.8125 5.515625 26.8125 
Q 5.515625 40.234375 12.765625 48.109375 
Q 20.015625 56 32.328125 56 
Q 43.359375 56 49.78125 48.890625 
Q 56.203125 41.796875 56.203125 29.59375 
z
M 47.21875 32.234375 
Q 47.125 39.59375 43.09375 43.984375 
Q 39.0625 48.390625 32.421875 48.390625 
Q 24.90625 48.390625 20.390625 44.140625 
Q 15.875 39.890625 15.1875 32.171875 
z
" id="DejaVuSans-101"/>
      <path d="M 45.40625 46.390625 
L 45.40625 75.984375 
L 54.390625 75.984375 
L 54.390625 0 
L 45.40625 0 
L 45.40625 8.203125 
Q 42.578125 3.328125 38.25 0.953125 
Q 33.9375 -1.421875 27.875 -1.421875 
Q 17.96875 -1.421875 11.734375 6.484375 
Q 5.515625 14.40625 5.515625 27.296875 
Q 5.515625 40.1875 11.734375 48.09375 
Q 17.96875 56 27.875 56 
Q 33.9375 56 38.25 53.625 
Q 42.578125 51.265625 45.40625 46.390625 
z
M 14.796875 27.296875 
Q 14.796875 17.390625 18.875 11.75 
Q 22.953125 6.109375 30.078125 6.109375 
Q 37.203125 6.109375 41.296875 11.75 
Q 45.40625 17.390625 45.40625 27.296875 
Q 45.40625 37.203125 41.296875 42.84375 
Q 37.203125 48.484375 30.078125 48.484375 
Q 22.953125 48.484375 18.875 42.84375 
Q 14.796875 37.203125 14.796875 27.296875 
z
" id="DejaVuSans-100"/>
      <path d="M 50.984375 -16.609375 
L 50.984375 -23.578125 
L -0.984375 -23.578125 
L -0.984375 -16.609375 
z
" id="DejaVuSans-95"/>
      <path d="M 30.609375 48.390625 
Q 23.390625 48.390625 19.1875 42.75 
Q 14.984375 37.109375 14.984375 27.296875 
Q 14.984375 17.484375 19.15625 11.84375 
Q 23.34375 6.203125 30.609375 6.203125 
Q 37.796875 6.203125 41.984375 11.859375 
Q 46.1875 17.53125 46.1875 27.296875 
Q 46.1875 37.015625 41.984375 42.703125 
Q 37.796875 48.390625 30.609375 48.390625 
z
M 30.609375 56 
Q 42.328125 56 49.015625 48.375 
Q 55.71875 40.765625 55.71875 27.296875 
Q 55.71875 13.875 49.015625 6.21875 
Q 42.328125 -1.421875 30.609375 -1.421875 
Q 18.84375 -1.421875 12.171875 6.21875 
Q 5.515625 13.875 5.515625 27.296875 
Q 5.515625 40.765625 12.171875 48.375 
Q 18.84375 56 30.609375 56 
z
" id="DejaVuSans-111"/>
      <path d="M 8.5 21.578125 
L 8.5 54.6875 
L 17.484375 54.6875 
L 17.484375 21.921875 
Q 17.484375 14.15625 20.5 10.265625 
Q 23.53125 6.390625 29.59375 6.390625 
Q 36.859375 6.390625 41.078125 11.03125 
Q 45.3125 15.671875 45.3125 23.6875 
L 45.3125 54.6875 
L 54.296875 54.6875 
L 54.296875 0 
L 45.3125 0 
L 45.3125 8.40625 
Q 42.046875 3.421875 37.71875 1 
Q 33.40625 -1.421875 27.6875 -1.421875 
Q 18.265625 -1.421875 13.375 4.4375 
Q 8.5 10.296875 8.5 21.578125 
z
M 31.109375 56 
z
" id="DejaVuSans-117"/>
      <path d="M 54.890625 33.015625 
L 54.890625 0 
L 45.90625 0 
L 45.90625 32.71875 
Q 45.90625 40.484375 42.875 44.328125 
Q 39.84375 48.1875 33.796875 48.1875 
Q 26.515625 48.1875 22.3125 43.546875 
Q 18.109375 38.921875 18.109375 30.90625 
L 18.109375 0 
L 9.078125 0 
L 9.078125 54.6875 
L 18.109375 54.6875 
L 18.109375 46.1875 
Q 21.34375 51.125 25.703125 53.5625 
Q 30.078125 56 35.796875 56 
Q 45.21875 56 50.046875 50.171875 
Q 54.890625 44.34375 54.890625 33.015625 
z
" id="DejaVuSans-110"/>
     </defs>
     <g transform="translate(184.737969 280.276563)scale(0.1 -0.1)">
      <use xlink:href="#DejaVuSans-112"/>
      <use x="63.476562" xlink:href="#DejaVuSans-114"/>
      <use x="102.339844" xlink:href="#DejaVuSans-101"/>
      <use x="163.863281" xlink:href="#DejaVuSans-100"/>
      <use x="227.339844" xlink:href="#DejaVuSans-95"/>
      <use x="277.339844" xlink:href="#DejaVuSans-114"/>
      <use x="316.203125" xlink:href="#DejaVuSans-111"/>
      <use x="377.384766" xlink:href="#DejaVuSans-117"/>
      <use x="440.763672" xlink:href="#DejaVuSans-110"/>
      <use x="504.142578" xlink:href="#DejaVuSans-100"/>
     </g>
    </g>
   </g>
   <g id="matplotlib.axis_2">
    <g id="ytick_1">
     <g id="line2d_11">
      <defs>
       <path d="M 0 0 
L -3.5 0 
" id="m39846ad506" style="stroke:#000000;stroke-width:0.8;"/>
      </defs>
      <g>
       <use style="stroke:#000000;stroke-width:0.8;" x="104.4" xlink:href="#m39846ad506" y="45.432"/>
      </g>
     </g>
     <g id="text_12">
      <!-- 1 -->
      <g transform="translate(95.320313 47.995281)rotate(-90)scale(0.1 -0.1)">
       <use xlink:href="#DejaVuSans-49"/>
      </g>
     </g>
    </g>
    <g id="ytick_2">
     <g id="line2d_12">
      <g>
       <use style="stroke:#000000;stroke-width:0.8;" x="104.4" xlink:href="#m39846ad506" y="67.176"/>
      </g>
     </g>
     <g id="text_13">
      <!-- 2 -->
      <g transform="translate(95.320313 69.739281)rotate(-90)scale(0.1 -0.1)">
       <use xlink:href="#DejaVuSans-50"/>
      </g>
     </g>
    </g>
    <g id="ytick_3">
     <g id="line2d_13">
      <g>
       <use style="stroke:#000000;stroke-width:0.8;" x="104.4" xlink:href="#m39846ad506" y="88.92"/>
      </g>
     </g>
     <g id="text_14">
      <!-- 3 -->
      <g transform="translate(95.320313 91.483281)rotate(-90)scale(0.1 -0.1)">
       <use xlink:href="#DejaVuSans-51"/>
      </g>
     </g>
    </g>
    <g id="ytick_4">
     <g id="line2d_14">
      <g>
       <use style="stroke:#000000;stroke-width:0.8;" x="104.4" xlink:href="#m39846ad506" y="110.664"/>
      </g>
     </g>
     <g id="text_15">
      <!-- 4 -->
      <g transform="translate(95.320313 113.227281)rotate(-90)scale(0.1 -0.1)">
       <use xlink:href="#DejaVuSans-52"/>
      </g>
     </g>
    </g>
    <g id="ytick_5">
     <g id="line2d_15">
      <g>
       <use style="stroke:#000000;stroke-width:0.8;" x="104.4" xlink:href="#m39846ad506" y="132.408"/>
      </g>
     </g>
     <g id="text_16">
      <!-- 5 -->
      <g transform="translate(95.320313 134.971281)rotate(-90)scale(0.1 -0.1)">
       <use xlink:href="#DejaVuSans-53"/>
      </g>
     </g>
    </g>
    <g id="ytick_6">
     <g id="line2d_16">
      <g>
       <use style="stroke:#000000;stroke-width:0.8;" x="104.4" xlink:href="#m39846ad506" y="154.152"/>
      </g>
     </g>
     <g id="text_17">
      <!-- 6 -->
      <g transform="translate(95.320313 156.715281)rotate(-90)scale(0.1 -0.1)">
       <use xlink:href="#DejaVuSans-54"/>
      </g>
     </g>
    </g>
    <g id="ytick_7">
     <g id="line2d_17">
      <g>
       <use style="stroke:#000000;stroke-width:0.8;" x="104.4" xlink:href="#m39846ad506" y="175.896"/>
      </g>
     </g>
     <g id="text_18">
      <!-- 7 -->
      <g transform="translate(95.320313 178.459281)rotate(-90)scale(0.1 -0.1)">
       <use xlink:href="#DejaVuSans-55"/>
      </g>
     </g>
    </g>
    <g id="ytick_8">
     <g id="line2d_18">
      <g>
       <use style="stroke:#000000;stroke-width:0.8;" x="104.4" xlink:href="#m39846ad506" y="197.64"/>
      </g>
     </g>
     <g id="text_19">
      <!-- 8 -->
      <g transform="translate(95.320313 200.203281)rotate(-90)scale(0.1 -0.1)">
       <use xlink:href="#DejaVuSans-56"/>
      </g>
     </g>
    </g>
    <g id="ytick_9">
     <g id="line2d_19">
      <g>
       <use style="stroke:#000000;stroke-width:0.8;" x="104.4" xlink:href="#m39846ad506" y="219.384"/>
      </g>
     </g>
     <g id="text_20">
      <!-- 9 -->
      <g transform="translate(95.320313 221.947281)rotate(-90)scale(0.1 -0.1)">
       <use xlink:href="#DejaVuSans-57"/>
      </g>
     </g>
    </g>
    <g id="ytick_10">
     <g id="line2d_20">
      <g>
       <use style="stroke:#000000;stroke-width:0.8;" x="104.4" xlink:href="#m39846ad506" y="241.128"/>
      </g>
     </g>
     <g id="text_21">
      <!-- 10 -->
      <g transform="translate(95.320313 250.053781)rotate(-90)scale(0.1 -0.1)">
       <use xlink:href="#DejaVuSans-49"/>
       <use x="63.623047" xlink:href="#DejaVuSans-48"/>
      </g>
     </g>
    </g>
    <g id="text_22">
     <!-- test -->
     <defs>
      <path d="M 18.3125 70.21875 
L 18.3125 54.6875 
L 36.8125 54.6875 
L 36.8125 47.703125 
L 18.3125 47.703125 
L 18.3125 18.015625 
Q 18.3125 11.328125 20.140625 9.421875 
Q 21.96875 7.515625 27.59375 7.515625 
L 36.8125 7.515625 
L 36.8125 0 
L 27.59375 0 
Q 17.1875 0 13.234375 3.875 
Q 9.28125 7.765625 9.28125 18.015625 
L 9.28125 47.703125 
L 2.6875 47.703125 
L 2.6875 54.6875 
L 9.28125 54.6875 
L 9.28125 70.21875 
z
" id="DejaVuSans-116"/>
      <path d="M 44.28125 53.078125 
L 44.28125 44.578125 
Q 40.484375 46.53125 36.375 47.5 
Q 32.28125 48.484375 27.875 48.484375 
Q 21.1875 48.484375 17.84375 46.4375 
Q 14.5 44.390625 14.5 40.28125 
Q 14.5 37.15625 16.890625 35.375 
Q 19.28125 33.59375 26.515625 31.984375 
L 29.59375 31.296875 
Q 39.15625 29.25 43.1875 25.515625 
Q 47.21875 21.78125 47.21875 15.09375 
Q 47.21875 7.46875 41.1875 3.015625 
Q 35.15625 -1.421875 24.609375 -1.421875 
Q 20.21875 -1.421875 15.453125 -0.5625 
Q 10.6875 0.296875 5.421875 2 
L 5.421875 11.28125 
Q 10.40625 8.6875 15.234375 7.390625 
Q 20.0625 6.109375 24.8125 6.109375 
Q 31.15625 6.109375 34.5625 8.28125 
Q 37.984375 10.453125 37.984375 14.40625 
Q 37.984375 18.0625 35.515625 20.015625 
Q 33.0625 21.96875 24.703125 23.78125 
L 21.578125 24.515625 
Q 13.234375 26.265625 9.515625 29.90625 
Q 5.8125 33.546875 5.8125 39.890625 
Q 5.8125 47.609375 11.28125 51.796875 
Q 16.75 56 26.8125 56 
Q 31.78125 56 36.171875 55.265625 
Q 40.578125 54.546875 44.28125 53.078125 
z
" id="DejaVuSans-115"/>
     </defs>
     <g transform="translate(81.642188 152.881563)rotate(-90)scale(0.1 -0.1)">
      <use xlink:href="#DejaVuSans-116"/>
      <use x="39.208984" xlink:href="#DejaVuSans-101"/>
      <use x="100.732422" xlink:href="#DejaVuSans-115"/>
      <use x="152.832031" xlink:href="#DejaVuSans-116"/>
     </g>
    </g>
   </g>
   <g id="text_23">
    <!-- 2600 -->
    <g style="fill:#262626;" transform="translate(102.547 48.191375)scale(0.1 -0.1)">
     <use xlink:href="#DejaVuSans-50"/>
     <use x="63.623047" xlink:href="#DejaVuSans-54"/>
     <use x="127.246094" xlink:href="#DejaVuSans-48"/>
     <use x="190.869141" xlink:href="#DejaVuSans-48"/>
    </g>
   </g>
   <g id="text_24">
    <!-- 434 -->
    <g style="fill:#262626;" transform="translate(127.47225 48.191375)scale(0.1 -0.1)">
     <use xlink:href="#DejaVuSans-52"/>
     <use x="63.623047" xlink:href="#DejaVuSans-51"/>
     <use x="127.246094" xlink:href="#DejaVuSans-52"/>
    </g>
   </g>
   <g id="text_25">
    <!-- 217 -->
    <g style="fill:#262626;" transform="translate(149.21625 48.191375)scale(0.1 -0.1)">
     <use xlink:href="#DejaVuSans-50"/>
     <use x="63.623047" xlink:href="#DejaVuSans-49"/>
     <use x="127.246094" xlink:href="#DejaVuSans-55"/>
    </g>
   </g>
   <g id="text_26">
    <!-- 146 -->
    <g style="fill:#262626;" transform="translate(170.96025 48.191375)scale(0.1 -0.1)">
     <use xlink:href="#DejaVuSans-49"/>
     <use x="63.623047" xlink:href="#DejaVuSans-52"/>
     <use x="127.246094" xlink:href="#DejaVuSans-54"/>
    </g>
   </g>
   <g id="text_27">
    <!-- 105 -->
    <g style="fill:#262626;" transform="translate(192.70425 48.191375)scale(0.1 -0.1)">
     <use xlink:href="#DejaVuSans-49"/>
     <use x="63.623047" xlink:href="#DejaVuSans-48"/>
     <use x="127.246094" xlink:href="#DejaVuSans-53"/>
    </g>
   </g>
   <g id="text_28">
    <!-- 88 -->
    <g style="fill:#262626;" transform="translate(217.6295 48.191375)scale(0.1 -0.1)">
     <use xlink:href="#DejaVuSans-56"/>
     <use x="63.623047" xlink:href="#DejaVuSans-56"/>
    </g>
   </g>
   <g id="text_29">
    <!-- 80 -->
    <g style="fill:#262626;" transform="translate(239.3735 48.191375)scale(0.1 -0.1)">
     <use xlink:href="#DejaVuSans-56"/>
     <use x="63.623047" xlink:href="#DejaVuSans-48"/>
    </g>
   </g>
   <g id="text_30">
    <!-- 75 -->
    <g style="fill:#262626;" transform="translate(261.1175 48.191375)scale(0.1 -0.1)">
     <use xlink:href="#DejaVuSans-55"/>
     <use x="63.623047" xlink:href="#DejaVuSans-53"/>
    </g>
   </g>
   <g id="text_31">
    <!-- 88 -->
    <g style="fill:#262626;" transform="translate(282.8615 48.191375)scale(0.1 -0.1)">
     <use xlink:href="#DejaVuSans-56"/>
     <use x="63.623047" xlink:href="#DejaVuSans-56"/>
    </g>
   </g>
   <g id="text_32">
    <!-- 67 -->
    <g style="fill:#262626;" transform="translate(304.6055 48.191375)scale(0.1 -0.1)">
     <use xlink:href="#DejaVuSans-54"/>
     <use x="63.623047" xlink:href="#DejaVuSans-55"/>
    </g>
   </g>
   <g id="text_33">
    <!-- 428 -->
    <g style="fill:#262626;" transform="translate(105.72825 69.935375)scale(0.1 -0.1)">
     <use xlink:href="#DejaVuSans-52"/>
     <use x="63.623047" xlink:href="#DejaVuSans-50"/>
     <use x="127.246094" xlink:href="#DejaVuSans-56"/>
    </g>
   </g>
   <g id="text_34">
    <!-- 443 -->
    <g style="fill:#262626;" transform="translate(127.47225 69.935375)scale(0.1 -0.1)">
     <use xlink:href="#DejaVuSans-52"/>
     <use x="63.623047" xlink:href="#DejaVuSans-52"/>
     <use x="127.246094" xlink:href="#DejaVuSans-51"/>
    </g>
   </g>
   <g id="text_35">
    <!-- 105 -->
    <g style="fill:#262626;" transform="translate(149.21625 69.935375)scale(0.1 -0.1)">
     <use xlink:href="#DejaVuSans-49"/>
     <use x="63.623047" xlink:href="#DejaVuSans-48"/>
     <use x="127.246094" xlink:href="#DejaVuSans-53"/>
    </g>
   </g>
   <g id="text_36">
    <!-- 100 -->
    <g style="fill:#262626;" transform="translate(170.96025 69.935375)scale(0.1 -0.1)">
     <use xlink:href="#DejaVuSans-49"/>
     <use x="63.623047" xlink:href="#DejaVuSans-48"/>
     <use x="127.246094" xlink:href="#DejaVuSans-48"/>
    </g>
   </g>
   <g id="text_37">
    <!-- 55 -->
    <g style="fill:#262626;" transform="translate(195.8855 69.935375)scale(0.1 -0.1)">
     <use xlink:href="#DejaVuSans-53"/>
     <use x="63.623047" xlink:href="#DejaVuSans-53"/>
    </g>
   </g>
   <g id="text_38">
    <!-- 73 -->
    <g style="fill:#262626;" transform="translate(217.6295 69.935375)scale(0.1 -0.1)">
     <use xlink:href="#DejaVuSans-55"/>
     <use x="63.623047" xlink:href="#DejaVuSans-51"/>
    </g>
   </g>
   <g id="text_39">
    <!-- 44 -->
    <g style="fill:#262626;" transform="translate(239.3735 69.935375)scale(0.1 -0.1)">
     <use xlink:href="#DejaVuSans-52"/>
     <use x="63.623047" xlink:href="#DejaVuSans-52"/>
    </g>
   </g>
   <g id="text_40">
    <!-- 50 -->
    <g style="fill:#262626;" transform="translate(261.1175 69.935375)scale(0.1 -0.1)">
     <use xlink:href="#DejaVuSans-53"/>
     <use x="63.623047" xlink:href="#DejaVuSans-48"/>
    </g>
   </g>
   <g id="text_41">
    <!-- 40 -->
    <g style="fill:#262626;" transform="translate(282.8615 69.935375)scale(0.1 -0.1)">
     <use xlink:href="#DejaVuSans-52"/>
     <use x="63.623047" xlink:href="#DejaVuSans-48"/>
    </g>
   </g>
   <g id="text_42">
    <!-- 24 -->
    <g style="fill:#262626;" transform="translate(304.6055 69.935375)scale(0.1 -0.1)">
     <use xlink:href="#DejaVuSans-50"/>
     <use x="63.623047" xlink:href="#DejaVuSans-52"/>
    </g>
   </g>
   <g id="text_43">
    <!-- 184 -->
    <g style="fill:#262626;" transform="translate(105.72825 91.679375)scale(0.1 -0.1)">
     <use xlink:href="#DejaVuSans-49"/>
     <use x="63.623047" xlink:href="#DejaVuSans-56"/>
     <use x="127.246094" xlink:href="#DejaVuSans-52"/>
    </g>
   </g>
   <g id="text_44">
    <!-- 237 -->
    <g style="fill:#262626;" transform="translate(127.47225 91.679375)scale(0.1 -0.1)">
     <use xlink:href="#DejaVuSans-50"/>
     <use x="63.623047" xlink:href="#DejaVuSans-51"/>
     <use x="127.246094" xlink:href="#DejaVuSans-55"/>
    </g>
   </g>
   <g id="text_45">
    <!-- 367 -->
    <g style="fill:#262626;" transform="translate(149.21625 91.679375)scale(0.1 -0.1)">
     <use xlink:href="#DejaVuSans-51"/>
     <use x="63.623047" xlink:href="#DejaVuSans-54"/>
     <use x="127.246094" xlink:href="#DejaVuSans-55"/>
    </g>
   </g>
   <g id="text_46">
    <!-- 128 -->
    <g style="fill:#262626;" transform="translate(170.96025 91.679375)scale(0.1 -0.1)">
     <use xlink:href="#DejaVuSans-49"/>
     <use x="63.623047" xlink:href="#DejaVuSans-50"/>
     <use x="127.246094" xlink:href="#DejaVuSans-56"/>
    </g>
   </g>
   <g id="text_47">
    <!-- 83 -->
    <g style="fill:#262626;" transform="translate(195.8855 91.679375)scale(0.1 -0.1)">
     <use xlink:href="#DejaVuSans-56"/>
     <use x="63.623047" xlink:href="#DejaVuSans-51"/>
    </g>
   </g>
   <g id="text_48">
    <!-- 61 -->
    <g style="fill:#262626;" transform="translate(217.6295 91.679375)scale(0.1 -0.1)">
     <use xlink:href="#DejaVuSans-54"/>
     <use x="63.623047" xlink:href="#DejaVuSans-49"/>
    </g>
   </g>
   <g id="text_49">
    <!-- 48 -->
    <g style="fill:#262626;" transform="translate(239.3735 91.679375)scale(0.1 -0.1)">
     <use xlink:href="#DejaVuSans-52"/>
     <use x="63.623047" xlink:href="#DejaVuSans-56"/>
    </g>
   </g>
   <g id="text_50">
    <!-- 56 -->
    <g style="fill:#262626;" transform="translate(261.1175 91.679375)scale(0.1 -0.1)">
     <use xlink:href="#DejaVuSans-53"/>
     <use x="63.623047" xlink:href="#DejaVuSans-54"/>
    </g>
   </g>
   <g id="text_51">
    <!-- 41 -->
    <g style="fill:#262626;" transform="translate(282.8615 91.679375)scale(0.1 -0.1)">
     <use xlink:href="#DejaVuSans-52"/>
     <use x="63.623047" xlink:href="#DejaVuSans-49"/>
    </g>
   </g>
   <g id="text_52">
    <!-- 19 -->
    <g style="fill:#262626;" transform="translate(304.6055 91.679375)scale(0.1 -0.1)">
     <use xlink:href="#DejaVuSans-49"/>
     <use x="63.623047" xlink:href="#DejaVuSans-57"/>
    </g>
   </g>
   <g id="text_53">
    <!-- 80 -->
    <g style="fill:#262626;" transform="translate(108.9095 113.423375)scale(0.1 -0.1)">
     <use xlink:href="#DejaVuSans-56"/>
     <use x="63.623047" xlink:href="#DejaVuSans-48"/>
    </g>
   </g>
   <g id="text_54">
    <!-- 81 -->
    <g style="fill:#262626;" transform="translate(130.6535 113.423375)scale(0.1 -0.1)">
     <use xlink:href="#DejaVuSans-56"/>
     <use x="63.623047" xlink:href="#DejaVuSans-49"/>
    </g>
   </g>
   <g id="text_55">
    <!-- 122 -->
    <g style="fill:#262626;" transform="translate(149.21625 113.423375)scale(0.1 -0.1)">
     <use xlink:href="#DejaVuSans-49"/>
     <use x="63.623047" xlink:href="#DejaVuSans-50"/>
     <use x="127.246094" xlink:href="#DejaVuSans-50"/>
    </g>
   </g>
   <g id="text_56">
    <!-- 268 -->
    <g style="fill:#262626;" transform="translate(170.96025 113.423375)scale(0.1 -0.1)">
     <use xlink:href="#DejaVuSans-50"/>
     <use x="63.623047" xlink:href="#DejaVuSans-54"/>
     <use x="127.246094" xlink:href="#DejaVuSans-56"/>
    </g>
   </g>
   <g id="text_57">
    <!-- 79 -->
    <g style="fill:#262626;" transform="translate(195.8855 113.423375)scale(0.1 -0.1)">
     <use xlink:href="#DejaVuSans-55"/>
     <use x="63.623047" xlink:href="#DejaVuSans-57"/>
    </g>
   </g>
   <g id="text_58">
    <!-- 69 -->
    <g style="fill:#262626;" transform="translate(217.6295 113.423375)scale(0.1 -0.1)">
     <use xlink:href="#DejaVuSans-54"/>
     <use x="63.623047" xlink:href="#DejaVuSans-57"/>
    </g>
   </g>
   <g id="text_59">
    <!-- 70 -->
    <g style="fill:#262626;" transform="translate(239.3735 113.423375)scale(0.1 -0.1)">
     <use xlink:href="#DejaVuSans-55"/>
     <use x="63.623047" xlink:href="#DejaVuSans-48"/>
    </g>
   </g>
   <g id="text_60">
    <!-- 62 -->
    <g style="fill:#262626;" transform="translate(261.1175 113.423375)scale(0.1 -0.1)">
     <use xlink:href="#DejaVuSans-54"/>
     <use x="63.623047" xlink:href="#DejaVuSans-50"/>
    </g>
   </g>
   <g id="text_61">
    <!-- 38 -->
    <g style="fill:#262626;" transform="translate(282.8615 113.423375)scale(0.1 -0.1)">
     <use xlink:href="#DejaVuSans-51"/>
     <use x="63.623047" xlink:href="#DejaVuSans-56"/>
    </g>
   </g>
   <g id="text_62">
    <!-- 21 -->
    <g style="fill:#262626;" transform="translate(304.6055 113.423375)scale(0.1 -0.1)">
     <use xlink:href="#DejaVuSans-50"/>
     <use x="63.623047" xlink:href="#DejaVuSans-49"/>
    </g>
   </g>
   <g id="text_63">
    <!-- 75 -->
    <g style="fill:#262626;" transform="translate(108.9095 135.167375)scale(0.1 -0.1)">
     <use xlink:href="#DejaVuSans-55"/>
     <use x="63.623047" xlink:href="#DejaVuSans-53"/>
    </g>
   </g>
   <g id="text_64">
    <!-- 106 -->
    <g style="fill:#262626;" transform="translate(127.47225 135.167375)scale(0.1 -0.1)">
     <use xlink:href="#DejaVuSans-49"/>
     <use x="63.623047" xlink:href="#DejaVuSans-48"/>
     <use x="127.246094" xlink:href="#DejaVuSans-54"/>
    </g>
   </g>
   <g id="text_65">
    <!-- 79 -->
    <g style="fill:#262626;" transform="translate(152.3975 135.167375)scale(0.1 -0.1)">
     <use xlink:href="#DejaVuSans-55"/>
     <use x="63.623047" xlink:href="#DejaVuSans-57"/>
    </g>
   </g>
   <g id="text_66">
    <!-- 202 -->
    <g style="fill:#262626;" transform="translate(170.96025 135.167375)scale(0.1 -0.1)">
     <use xlink:href="#DejaVuSans-50"/>
     <use x="63.623047" xlink:href="#DejaVuSans-48"/>
     <use x="127.246094" xlink:href="#DejaVuSans-50"/>
    </g>
   </g>
   <g id="text_67">
    <!-- 471 -->
    <g style="fill:#262626;" transform="translate(192.70425 135.167375)scale(0.1 -0.1)">
     <use xlink:href="#DejaVuSans-52"/>
     <use x="63.623047" xlink:href="#DejaVuSans-55"/>
     <use x="127.246094" xlink:href="#DejaVuSans-49"/>
    </g>
   </g>
   <g id="text_68">
    <!-- 158 -->
    <g style="fill:#262626;" transform="translate(214.44825 135.167375)scale(0.1 -0.1)">
     <use xlink:href="#DejaVuSans-49"/>
     <use x="63.623047" xlink:href="#DejaVuSans-53"/>
     <use x="127.246094" xlink:href="#DejaVuSans-56"/>
    </g>
   </g>
   <g id="text_69">
    <!-- 141 -->
    <g style="fill:#262626;" transform="translate(236.19225 135.167375)scale(0.1 -0.1)">
     <use xlink:href="#DejaVuSans-49"/>
     <use x="63.623047" xlink:href="#DejaVuSans-52"/>
     <use x="127.246094" xlink:href="#DejaVuSans-49"/>
    </g>
   </g>
   <g id="text_70">
    <!-- 112 -->
    <g style="fill:#262626;" transform="translate(257.93625 135.167375)scale(0.1 -0.1)">
     <use xlink:href="#DejaVuSans-49"/>
     <use x="63.623047" xlink:href="#DejaVuSans-49"/>
     <use x="127.246094" xlink:href="#DejaVuSans-50"/>
    </g>
   </g>
   <g id="text_71">
    <!-- 107 -->
    <g style="fill:#262626;" transform="translate(279.68025 135.167375)scale(0.1 -0.1)">
     <use xlink:href="#DejaVuSans-49"/>
     <use x="63.623047" xlink:href="#DejaVuSans-48"/>
     <use x="127.246094" xlink:href="#DejaVuSans-55"/>
    </g>
   </g>
   <g id="text_72">
    <!-- 41 -->
    <g style="fill:#262626;" transform="translate(304.6055 135.167375)scale(0.1 -0.1)">
     <use xlink:href="#DejaVuSans-52"/>
     <use x="63.623047" xlink:href="#DejaVuSans-49"/>
    </g>
   </g>
   <g id="text_73">
    <!-- 46 -->
    <g style="fill:#262626;" transform="translate(108.9095 156.911375)scale(0.1 -0.1)">
     <use xlink:href="#DejaVuSans-52"/>
     <use x="63.623047" xlink:href="#DejaVuSans-54"/>
    </g>
   </g>
   <g id="text_74">
    <!-- 39 -->
    <g style="fill:#262626;" transform="translate(130.6535 156.911375)scale(0.1 -0.1)">
     <use xlink:href="#DejaVuSans-51"/>
     <use x="63.623047" xlink:href="#DejaVuSans-57"/>
    </g>
   </g>
   <g id="text_75">
    <!-- 46 -->
    <g style="fill:#262626;" transform="translate(152.3975 156.911375)scale(0.1 -0.1)">
     <use xlink:href="#DejaVuSans-52"/>
     <use x="63.623047" xlink:href="#DejaVuSans-54"/>
    </g>
   </g>
   <g id="text_76">
    <!-- 75 -->
    <g style="fill:#262626;" transform="translate(174.1415 156.911375)scale(0.1 -0.1)">
     <use xlink:href="#DejaVuSans-55"/>
     <use x="63.623047" xlink:href="#DejaVuSans-53"/>
    </g>
   </g>
   <g id="text_77">
    <!-- 138 -->
    <g style="fill:#262626;" transform="translate(192.70425 156.911375)scale(0.1 -0.1)">
     <use xlink:href="#DejaVuSans-49"/>
     <use x="63.623047" xlink:href="#DejaVuSans-51"/>
     <use x="127.246094" xlink:href="#DejaVuSans-56"/>
    </g>
   </g>
   <g id="text_78">
    <!-- 403 -->
    <g style="fill:#262626;" transform="translate(214.44825 156.911375)scale(0.1 -0.1)">
     <use xlink:href="#DejaVuSans-52"/>
     <use x="63.623047" xlink:href="#DejaVuSans-48"/>
     <use x="127.246094" xlink:href="#DejaVuSans-51"/>
    </g>
   </g>
   <g id="text_79">
    <!-- 138 -->
    <g style="fill:#262626;" transform="translate(236.19225 156.911375)scale(0.1 -0.1)">
     <use xlink:href="#DejaVuSans-49"/>
     <use x="63.623047" xlink:href="#DejaVuSans-51"/>
     <use x="127.246094" xlink:href="#DejaVuSans-56"/>
    </g>
   </g>
   <g id="text_80">
    <!-- 133 -->
    <g style="fill:#262626;" transform="translate(257.93625 156.911375)scale(0.1 -0.1)">
     <use xlink:href="#DejaVuSans-49"/>
     <use x="63.623047" xlink:href="#DejaVuSans-51"/>
     <use x="127.246094" xlink:href="#DejaVuSans-51"/>
    </g>
   </g>
   <g id="text_81">
    <!-- 104 -->
    <g style="fill:#262626;" transform="translate(279.68025 156.911375)scale(0.1 -0.1)">
     <use xlink:href="#DejaVuSans-49"/>
     <use x="63.623047" xlink:href="#DejaVuSans-48"/>
     <use x="127.246094" xlink:href="#DejaVuSans-52"/>
    </g>
   </g>
   <g id="text_82">
    <!-- 40 -->
    <g style="fill:#262626;" transform="translate(304.6055 156.911375)scale(0.1 -0.1)">
     <use xlink:href="#DejaVuSans-52"/>
     <use x="63.623047" xlink:href="#DejaVuSans-48"/>
    </g>
   </g>
   <g id="text_83">
    <!-- 37 -->
    <g style="fill:#262626;" transform="translate(108.9095 178.655375)scale(0.1 -0.1)">
     <use xlink:href="#DejaVuSans-51"/>
     <use x="63.623047" xlink:href="#DejaVuSans-55"/>
    </g>
   </g>
   <g id="text_84">
    <!-- 32 -->
    <g style="fill:#262626;" transform="translate(130.6535 178.655375)scale(0.1 -0.1)">
     <use xlink:href="#DejaVuSans-51"/>
     <use x="63.623047" xlink:href="#DejaVuSans-50"/>
    </g>
   </g>
   <g id="text_85">
    <!-- 50 -->
    <g style="fill:#262626;" transform="translate(152.3975 178.655375)scale(0.1 -0.1)">
     <use xlink:href="#DejaVuSans-53"/>
     <use x="63.623047" xlink:href="#DejaVuSans-48"/>
    </g>
   </g>
   <g id="text_86">
    <!-- 68 -->
    <g style="fill:#262626;" transform="translate(174.1415 178.655375)scale(0.1 -0.1)">
     <use xlink:href="#DejaVuSans-54"/>
     <use x="63.623047" xlink:href="#DejaVuSans-56"/>
    </g>
   </g>
   <g id="text_87">
    <!-- 89 -->
    <g style="fill:#262626;" transform="translate(195.8855 178.655375)scale(0.1 -0.1)">
     <use xlink:href="#DejaVuSans-56"/>
     <use x="63.623047" xlink:href="#DejaVuSans-57"/>
    </g>
   </g>
   <g id="text_88">
    <!-- 174 -->
    <g style="fill:#262626;" transform="translate(214.44825 178.655375)scale(0.1 -0.1)">
     <use xlink:href="#DejaVuSans-49"/>
     <use x="63.623047" xlink:href="#DejaVuSans-55"/>
     <use x="127.246094" xlink:href="#DejaVuSans-52"/>
    </g>
   </g>
   <g id="text_89">
    <!-- 660 -->
    <g style="fill:#262626;" transform="translate(236.19225 178.655375)scale(0.1 -0.1)">
     <use xlink:href="#DejaVuSans-54"/>
     <use x="63.623047" xlink:href="#DejaVuSans-54"/>
     <use x="127.246094" xlink:href="#DejaVuSans-48"/>
    </g>
   </g>
   <g id="text_90">
    <!-- 280 -->
    <g style="fill:#262626;" transform="translate(257.93625 178.655375)scale(0.1 -0.1)">
     <use xlink:href="#DejaVuSans-50"/>
     <use x="63.623047" xlink:href="#DejaVuSans-56"/>
     <use x="127.246094" xlink:href="#DejaVuSans-48"/>
    </g>
   </g>
   <g id="text_91">
    <!-- 267 -->
    <g style="fill:#262626;" transform="translate(279.68025 178.655375)scale(0.1 -0.1)">
     <use xlink:href="#DejaVuSans-50"/>
     <use x="63.623047" xlink:href="#DejaVuSans-54"/>
     <use x="127.246094" xlink:href="#DejaVuSans-55"/>
    </g>
   </g>
   <g id="text_92">
    <!-- 127 -->
    <g style="fill:#262626;" transform="translate(301.42425 178.655375)scale(0.1 -0.1)">
     <use xlink:href="#DejaVuSans-49"/>
     <use x="63.623047" xlink:href="#DejaVuSans-50"/>
     <use x="127.246094" xlink:href="#DejaVuSans-55"/>
    </g>
   </g>
   <g id="text_93">
    <!-- 28 -->
    <g style="fill:#262626;" transform="translate(108.9095 200.399375)scale(0.1 -0.1)">
     <use xlink:href="#DejaVuSans-50"/>
     <use x="63.623047" xlink:href="#DejaVuSans-56"/>
    </g>
   </g>
   <g id="text_94">
    <!-- 45 -->
    <g style="fill:#262626;" transform="translate(130.6535 200.399375)scale(0.1 -0.1)">
     <use xlink:href="#DejaVuSans-52"/>
     <use x="63.623047" xlink:href="#DejaVuSans-53"/>
    </g>
   </g>
   <g id="text_95">
    <!-- 47 -->
    <g style="fill:#262626;" transform="translate(152.3975 200.399375)scale(0.1 -0.1)">
     <use xlink:href="#DejaVuSans-52"/>
     <use x="63.623047" xlink:href="#DejaVuSans-55"/>
    </g>
   </g>
   <g id="text_96">
    <!-- 74 -->
    <g style="fill:#262626;" transform="translate(174.1415 200.399375)scale(0.1 -0.1)">
     <use xlink:href="#DejaVuSans-55"/>
     <use x="63.623047" xlink:href="#DejaVuSans-52"/>
    </g>
   </g>
   <g id="text_97">
    <!-- 89 -->
    <g style="fill:#262626;" transform="translate(195.8855 200.399375)scale(0.1 -0.1)">
     <use xlink:href="#DejaVuSans-56"/>
     <use x="63.623047" xlink:href="#DejaVuSans-57"/>
    </g>
   </g>
   <g id="text_98">
    <!-- 142 -->
    <g style="fill:#262626;" transform="translate(214.44825 200.399375)scale(0.1 -0.1)">
     <use xlink:href="#DejaVuSans-49"/>
     <use x="63.623047" xlink:href="#DejaVuSans-52"/>
     <use x="127.246094" xlink:href="#DejaVuSans-50"/>
    </g>
   </g>
   <g id="text_99">
    <!-- 302 -->
    <g style="fill:#262626;" transform="translate(236.19225 200.399375)scale(0.1 -0.1)">
     <use xlink:href="#DejaVuSans-51"/>
     <use x="63.623047" xlink:href="#DejaVuSans-48"/>
     <use x="127.246094" xlink:href="#DejaVuSans-50"/>
    </g>
   </g>
   <g id="text_100">
    <!-- 1441 -->
    <g style="fill:#262626;" transform="translate(254.755 200.399375)scale(0.1 -0.1)">
     <use xlink:href="#DejaVuSans-49"/>
     <use x="63.623047" xlink:href="#DejaVuSans-52"/>
     <use x="127.246094" xlink:href="#DejaVuSans-52"/>
     <use x="190.869141" xlink:href="#DejaVuSans-49"/>
    </g>
   </g>
   <g id="text_101">
    <!-- 886 -->
    <g style="fill:#262626;" transform="translate(279.68025 200.399375)scale(0.1 -0.1)">
     <use xlink:href="#DejaVuSans-56"/>
     <use x="63.623047" xlink:href="#DejaVuSans-56"/>
     <use x="127.246094" xlink:href="#DejaVuSans-54"/>
    </g>
   </g>
   <g id="text_102">
    <!-- 503 -->
    <g style="fill:#262626;" transform="translate(301.42425 200.399375)scale(0.1 -0.1)">
     <use xlink:href="#DejaVuSans-53"/>
     <use x="63.623047" xlink:href="#DejaVuSans-48"/>
     <use x="127.246094" xlink:href="#DejaVuSans-51"/>
    </g>
   </g>
   <g id="text_103">
    <!-- 44 -->
    <g style="fill:#262626;" transform="translate(108.9095 222.143375)scale(0.1 -0.1)">
     <use xlink:href="#DejaVuSans-52"/>
     <use x="63.623047" xlink:href="#DejaVuSans-52"/>
    </g>
   </g>
   <g id="text_104">
    <!-- 26 -->
    <g style="fill:#262626;" transform="translate(130.6535 222.143375)scale(0.1 -0.1)">
     <use xlink:href="#DejaVuSans-50"/>
     <use x="63.623047" xlink:href="#DejaVuSans-54"/>
    </g>
   </g>
   <g id="text_105">
    <!-- 35 -->
    <g style="fill:#262626;" transform="translate(152.3975 222.143375)scale(0.1 -0.1)">
     <use xlink:href="#DejaVuSans-51"/>
     <use x="63.623047" xlink:href="#DejaVuSans-53"/>
    </g>
   </g>
   <g id="text_106">
    <!-- 38 -->
    <g style="fill:#262626;" transform="translate(174.1415 222.143375)scale(0.1 -0.1)">
     <use xlink:href="#DejaVuSans-51"/>
     <use x="63.623047" xlink:href="#DejaVuSans-56"/>
    </g>
   </g>
   <g id="text_107">
    <!-- 69 -->
    <g style="fill:#262626;" transform="translate(195.8855 222.143375)scale(0.1 -0.1)">
     <use xlink:href="#DejaVuSans-54"/>
     <use x="63.623047" xlink:href="#DejaVuSans-57"/>
    </g>
   </g>
   <g id="text_108">
    <!-- 123 -->
    <g style="fill:#262626;" transform="translate(214.44825 222.143375)scale(0.1 -0.1)">
     <use xlink:href="#DejaVuSans-49"/>
     <use x="63.623047" xlink:href="#DejaVuSans-50"/>
     <use x="127.246094" xlink:href="#DejaVuSans-51"/>
    </g>
   </g>
   <g id="text_109">
    <!-- 269 -->
    <g style="fill:#262626;" transform="translate(236.19225 222.143375)scale(0.1 -0.1)">
     <use xlink:href="#DejaVuSans-50"/>
     <use x="63.623047" xlink:href="#DejaVuSans-54"/>
     <use x="127.246094" xlink:href="#DejaVuSans-57"/>
    </g>
   </g>
   <g id="text_110">
    <!-- 632 -->
    <g style="fill:#262626;" transform="translate(257.93625 222.143375)scale(0.1 -0.1)">
     <use xlink:href="#DejaVuSans-54"/>
     <use x="63.623047" xlink:href="#DejaVuSans-51"/>
     <use x="127.246094" xlink:href="#DejaVuSans-50"/>
    </g>
   </g>
   <g id="text_111">
    <!-- 2488 -->
    <g style="fill:#262626;" transform="translate(276.499 222.143375)scale(0.1 -0.1)">
     <use xlink:href="#DejaVuSans-50"/>
     <use x="63.623047" xlink:href="#DejaVuSans-52"/>
     <use x="127.246094" xlink:href="#DejaVuSans-56"/>
     <use x="190.869141" xlink:href="#DejaVuSans-56"/>
    </g>
   </g>
   <g id="text_112">
    <!-- 1519 -->
    <g style="fill:#262626;" transform="translate(298.243 222.143375)scale(0.1 -0.1)">
     <use xlink:href="#DejaVuSans-49"/>
     <use x="63.623047" xlink:href="#DejaVuSans-53"/>
     <use x="127.246094" xlink:href="#DejaVuSans-49"/>
     <use x="190.869141" xlink:href="#DejaVuSans-57"/>
    </g>
   </g>
   <g id="text_113">
    <!-- 63 -->
    <g style="fill:#262626;" transform="translate(108.9095 243.887375)scale(0.1 -0.1)">
     <use xlink:href="#DejaVuSans-54"/>
     <use x="63.623047" xlink:href="#DejaVuSans-51"/>
    </g>
   </g>
   <g id="text_114">
    <!-- 52 -->
    <g style="fill:#262626;" transform="translate(130.6535 243.887375)scale(0.1 -0.1)">
     <use xlink:href="#DejaVuSans-53"/>
     <use x="63.623047" xlink:href="#DejaVuSans-50"/>
    </g>
   </g>
   <g id="text_115">
    <!-- 57 -->
    <g style="fill:#262626;" transform="translate(152.3975 243.887375)scale(0.1 -0.1)">
     <use xlink:href="#DejaVuSans-53"/>
     <use x="63.623047" xlink:href="#DejaVuSans-55"/>
    </g>
   </g>
   <g id="text_116">
    <!-- 69 -->
    <g style="fill:#262626;" transform="translate(174.1415 243.887375)scale(0.1 -0.1)">
     <use xlink:href="#DejaVuSans-54"/>
     <use x="63.623047" xlink:href="#DejaVuSans-57"/>
    </g>
   </g>
   <g id="text_117">
    <!-- 69 -->
    <g style="fill:#262626;" transform="translate(195.8855 243.887375)scale(0.1 -0.1)">
     <use xlink:href="#DejaVuSans-54"/>
     <use x="63.623047" xlink:href="#DejaVuSans-57"/>
    </g>
   </g>
   <g id="text_118">
    <!-- 108 -->
    <g style="fill:#262626;" transform="translate(214.44825 243.887375)scale(0.1 -0.1)">
     <use xlink:href="#DejaVuSans-49"/>
     <use x="63.623047" xlink:href="#DejaVuSans-48"/>
     <use x="127.246094" xlink:href="#DejaVuSans-56"/>
    </g>
   </g>
   <g id="text_119">
    <!-- 258 -->
    <g style="fill:#262626;" transform="translate(236.19225 243.887375)scale(0.1 -0.1)">
     <use xlink:href="#DejaVuSans-50"/>
     <use x="63.623047" xlink:href="#DejaVuSans-53"/>
     <use x="127.246094" xlink:href="#DejaVuSans-56"/>
    </g>
   </g>
   <g id="text_120">
    <!-- 584 -->
    <g style="fill:#262626;" transform="translate(257.93625 243.887375)scale(0.1 -0.1)">
     <use xlink:href="#DejaVuSans-53"/>
     <use x="63.623047" xlink:href="#DejaVuSans-56"/>
     <use x="127.246094" xlink:href="#DejaVuSans-52"/>
    </g>
   </g>
   <g id="text_121">
    <!-- 2008 -->
    <g style="fill:#262626;" transform="translate(276.499 243.887375)scale(0.1 -0.1)">
     <use xlink:href="#DejaVuSans-50"/>
     <use x="63.623047" xlink:href="#DejaVuSans-48"/>
     <use x="127.246094" xlink:href="#DejaVuSans-48"/>
     <use x="190.869141" xlink:href="#DejaVuSans-56"/>
    </g>
   </g>
   <g id="text_122">
    <!-- 6118 -->
    <g style="fill:#ffffff;" transform="translate(298.243 243.887375)scale(0.1 -0.1)">
     <use xlink:href="#DejaVuSans-54"/>
     <use x="63.623047" xlink:href="#DejaVuSans-49"/>
     <use x="127.246094" xlink:href="#DejaVuSans-49"/>
     <use x="190.869141" xlink:href="#DejaVuSans-56"/>
    </g>
   </g>
  </g>
  <g id="axes_2">
   <g id="patch_3">
    <path clip-path="url(#p7f64fa6a43)" d="M 338.58 252 
L 338.58 251.150625 
L 338.58 35.409375 
L 338.58 34.56 
L 349.452 34.56 
L 349.452 35.409375 
L 349.452 251.150625 
L 349.452 252 
z
" style="fill:#ffffff;stroke:#ffffff;stroke-linejoin:miter;stroke-width:0.01;"/>
   </g>
   <image height="217" id="imagefe536ae707" transform="scale(1 -1)translate(0 -217)" width="10" x="339" xlink:href="data:image/png;base64,
iVBORw0KGgoAAAANSUhEUgAAAAoAAADZCAYAAAAZmKE8AAAABHNCSVQICAgIfAhkiAAAAV5JREFUaIHlmusNAzEIgx2J/efrLk2gK3yRjOi199uyMY/kenRlvUrgCSkJTlGFCBUSBBYG1jEzXsQI08MZaR5L0HWHNM4j7Z6GNsPSftcPaNxypwdLH4ZTQJwC9sQV42LAZ5iBQNYSUiSOkeYRm+HSlNEv3RCjnfHgyvxSP+50zzVvCoZTpP3s2VCbm8Hd45+Z95z0RXowIzTzbjDjzmNHP9JRYIQ9TQFj3PZLs+PswUC364bGZYQd18dgwv3S5y9d81rzuR4DJgwy4M/CG+lB1/BG6pCedI0Zvz89F2b8wLn0UNeicy1qZnFGhFMIvu7xGOGnPcXijHYgPXsuXM+VkLumtR4sIWaE764dJfRXZhCIzQweUv5x5UCEGy0hn0K/GV5CfM9QxoazB0rzhDfcMwh3wYiXTYkXYpRRfM+FN5BuYNamjP7t3pjr4q7t0vYtaSY1M5dw/1855lx/ACbSp+1YsL7GAAAAAElFTkSuQmCC" y="-35"/>
   <g id="matplotlib.axis_3"/>
   <g id="matplotlib.axis_4">
    <g id="ytick_11">
     <g id="line2d_21">
      <defs>
       <path d="M 0 0 
L 3.5 0 
" id="ma05087c9a4" style="stroke:#000000;stroke-width:0.8;"/>
      </defs>
      <g>
       <use style="stroke:#000000;stroke-width:0.8;" x="349.452" xlink:href="#ma05087c9a4" y="217.025637"/>
      </g>
     </g>
     <g id="text_123">
      <!-- 1000 -->
      <g transform="translate(356.452 220.824856)scale(0.1 -0.1)">
       <use xlink:href="#DejaVuSans-49"/>
       <use x="63.623047" xlink:href="#DejaVuSans-48"/>
       <use x="127.246094" xlink:href="#DejaVuSans-48"/>
       <use x="190.869141" xlink:href="#DejaVuSans-48"/>
      </g>
     </g>
    </g>
    <g id="ytick_12">
     <g id="line2d_22">
      <g>
       <use style="stroke:#000000;stroke-width:0.8;" x="349.452" xlink:href="#ma05087c9a4" y="181.373891"/>
      </g>
     </g>
     <g id="text_124">
      <!-- 2000 -->
      <g transform="translate(356.452 185.17311)scale(0.1 -0.1)">
       <use xlink:href="#DejaVuSans-50"/>
       <use x="63.623047" xlink:href="#DejaVuSans-48"/>
       <use x="127.246094" xlink:href="#DejaVuSans-48"/>
       <use x="190.869141" xlink:href="#DejaVuSans-48"/>
      </g>
     </g>
    </g>
    <g id="ytick_13">
     <g id="line2d_23">
      <g>
       <use style="stroke:#000000;stroke-width:0.8;" x="349.452" xlink:href="#ma05087c9a4" y="145.722145"/>
      </g>
     </g>
     <g id="text_125">
      <!-- 3000 -->
      <g transform="translate(356.452 149.521363)scale(0.1 -0.1)">
       <use xlink:href="#DejaVuSans-51"/>
       <use x="63.623047" xlink:href="#DejaVuSans-48"/>
       <use x="127.246094" xlink:href="#DejaVuSans-48"/>
       <use x="190.869141" xlink:href="#DejaVuSans-48"/>
      </g>
     </g>
    </g>
    <g id="ytick_14">
     <g id="line2d_24">
      <g>
       <use style="stroke:#000000;stroke-width:0.8;" x="349.452" xlink:href="#ma05087c9a4" y="110.070398"/>
      </g>
     </g>
     <g id="text_126">
      <!-- 4000 -->
      <g transform="translate(356.452 113.869617)scale(0.1 -0.1)">
       <use xlink:href="#DejaVuSans-52"/>
       <use x="63.623047" xlink:href="#DejaVuSans-48"/>
       <use x="127.246094" xlink:href="#DejaVuSans-48"/>
       <use x="190.869141" xlink:href="#DejaVuSans-48"/>
      </g>
     </g>
    </g>
    <g id="ytick_15">
     <g id="line2d_25">
      <g>
       <use style="stroke:#000000;stroke-width:0.8;" x="349.452" xlink:href="#ma05087c9a4" y="74.418652"/>
      </g>
     </g>
     <g id="text_127">
      <!-- 5000 -->
      <g transform="translate(356.452 78.217871)scale(0.1 -0.1)">
       <use xlink:href="#DejaVuSans-53"/>
       <use x="63.623047" xlink:href="#DejaVuSans-48"/>
       <use x="127.246094" xlink:href="#DejaVuSans-48"/>
       <use x="190.869141" xlink:href="#DejaVuSans-48"/>
      </g>
     </g>
    </g>
    <g id="ytick_16">
     <g id="line2d_26">
      <g>
       <use style="stroke:#000000;stroke-width:0.8;" x="349.452" xlink:href="#ma05087c9a4" y="38.766906"/>
      </g>
     </g>
     <g id="text_128">
      <!-- 6000 -->
      <g transform="translate(356.452 42.566125)scale(0.1 -0.1)">
       <use xlink:href="#DejaVuSans-54"/>
       <use x="63.623047" xlink:href="#DejaVuSans-48"/>
       <use x="127.246094" xlink:href="#DejaVuSans-48"/>
       <use x="190.869141" xlink:href="#DejaVuSans-48"/>
      </g>
     </g>
    </g>
   </g>
   <g id="patch_4">
    <path d="M 338.58 252 
L 338.58 251.150625 
L 338.58 35.409375 
L 338.58 34.56 
L 349.452 34.56 
L 349.452 35.409375 
L 349.452 251.150625 
L 349.452 252 
z
" style="fill:none;"/>
   </g>
  </g>
 </g>
 <defs>
  <clipPath id="pc666b0fc05">
   <rect height="217.44" width="217.44" x="104.4" y="34.56"/>
  </clipPath>
  <clipPath id="p7f64fa6a43">
   <rect height="217.44" width="10.872" x="338.58" y="34.56"/>
  </clipPath>
 </defs>
</svg>
